0.4539489092693464 -0.5448078675333131 0.6264831690887316
-0.3762521183308193 -0.6017601286777208 0.6568538293108039
-0.3676167965583741 -0.5833352329255976 0.24362165561917226
0.5467623302419342 -0.5198248652531724 0.201868518705156
0.26222218570335054 -0.5566924505321241 0.612693499141704
-0.27007057955761493 -0.5921683615155984 0.6235218669056578
-0.273276604639948 -0.5993829308436142 0.8172584453921683
0.26243749771784075 -0.5631676879437861 0.8351827020558574
-0.5620247926949238 -0.6012688441161762 0.5761246200555913
-0.5508765546892302 -0.5973616322122111 0.35320833248494166
-0.5090166451545558 -0.5211108835444784 0.1956545460476607
-0.5390419814132879 -0.5931565941507863 0.0652631927999571
-0.5270818812449536 -0.3962046757332661 0.6833319405224418
-0.6025403095996544 0.003120571254988773 0.6314032062278887
-0.5780596347563046 -0.026077263795454428 0.44089977223921273
-0.5214127486372562 -0.5229143424343434 0.47989324690894253
-0.53340506840193 -0.5316387439126995 0.5711324283887564
